ESPM 157
…
Now let’s try and turn that data into a “rectangle” (data.frame)

row_to_tibble <- function(row) {
  tibble(scientific_name = row$scientific_name, category = row$category)
}
get_result <- function(x){
  x %>% content() %>% getElement("result") %>% map_dfr(row_to_tibble)
}

df <- all_results %>% map_dfr(get_result)

df %>% filter(category == "EX")

# A tibble: 914 x 2
   scientific_name            category
   <chr>                      <chr>   
 1 Mirogrex hulensis          EX      
 2 Acanthametropus pecatonica EX      
 3 Achatinella abbreviata     EX      
 4 Achatinella buddii         EX      
 5 Achatinella caesia         EX      
 6 Achatinella casta          EX      
 7 Achatinella decora         EX      
 8 Achatinella dimorpha       EX      
 9 Achatinella elegans        EX      
10 Achatinella juddii         EX      
# … with 904 more rows
…
